{
    "header": {
        "status": "success",
        "pageNumber": 1,
        "pageSize": 1,
        "totalElements": 726,
        "totalPages": 726
    },
    "paginatedResources": [
        {
            "id": "FNGMovieP380906zzPH0154817",
            "resourceType": "movies",
            "locale": "eng",
            "attrTag": "search",
            "creationDateTime": 1546029421376,
            "updatedDateTime": 1557240243286,
            "name": "Wedding March 4: Something Old, Something New",
            "brandingChannelId": "C03d7bbeeb714f47ab3082457e217079",
            "releaseYear": 2018,
            "shortName": "Wedding March 4: Something Old, Something New",
            "playbackTypeId": 3,
            "playbackId": 1454310498,
            "catalogVisibilityDate": 1557236986000,
            "runningTime": 5059,
            "keywords": ["Wedding", "March", "4:", "Something", "Old", "New"],
            "shortDescription": "La pensión romántica de Mick y Olivia se ha convertido en un lugar popular para bodas. Sin embargo, una novia llega temprano con una enorme lista de cambios. Además, la hija de Olivia y su novio hacen una visita sorpresa y anuncian que se casarán.",
            "mediumDescription": "La pensión romántica de Mick y Olivia se ha convertido en un lugar popular para bodas. Sin embargo, una novia llega temprano con una enorme lista de cambios. Además, la hija de Olivia y su novio hacen una visita sorpresa y anuncian que se casarán.",
            "longDescription": "La pensión romántica de Mick y Olivia se ha convertido en un lugar popular para bodas. Sin embargo, una novia llega temprano con una enorme lista de cambios. Además, la hija de Olivia y su novio hacen una visita sorpresa y anuncian que se casarán.",
            "originalCountry": "US",
            "titleParadigmId": "380906",
            "originalLanguage": "eng",
            "productionStudio": "PARAMOUNT PICTURES",
            "originalAirDate": 1547856000000,
            "originalTitle": "Wedding March 4: Something Old, Something New",
            "cast": [
                {
                    "CastRole": "Actor",
                    "firstName": "Josie",
                    "lastName": "Bissett",
                    "resourceType": "persons",
                    "resourceId": "FNGPersonJosiezzBissett"
                },
                {
                    "CastRole": "Actor",
                    "firstName": "Jack",
                    "lastName": "Wagner",
                    "resourceType": "persons",
                    "resourceId": "FNGPersonJackzzWagner"
                },
                {
                    "CastRole": "Actor",
                    "firstName": "Merritt",
                    "lastName": "Patterson",
                    "resourceType": "persons",
                    "resourceId": "FNGPersonMerrittzzPatterson"
                },
                {
                    "CastRole": "Director",
                    "firstName": "Peter",
                    "lastName": "Deluise",
                    "resourceType": "persons",
                    "resourceId": "FNGPersonPeterzzDeluise"
                }
            ],
            "images": [
                {
                    "key": "Hero",
                    "servicetype": "bbvod",
                    "country": "Default",
                    "aspectRatio": "1by1",
                    "href": "https://fng-resizer-qp.foxplay.com/resizer/resizer?service=fng&surl=http://fng-vod-qp.foxplay.com/dl/vol1/s/FNG_CP/p380906ph0154817/2019-05-07-07-30-00/T380906_QP_1x1.png&h=5A8F908FF14167A447B72BA2C32BFB214707B961BAFEA78C41229D8319DF2F4D"
                },
                {
                    "key": "Hero",
                    "servicetype": "bbvod",
                    "country": "Default",
                    "aspectRatio": "16by9",
                    "href": "https://fng-resizer-qp.foxplay.com/resizer/resizer?service=fng&surl=http://fng-vod-qp.foxplay.com/dl/vol1/s/FNG_CP/p380906ph0154817/2019-05-07-07-30-00/T380906_QP_16x9.png&h=8C7B9982CB262B1896A216889072E9582FE44FF3D17427F5C32CDF16A8A20B4C"
                },
                {
                    "key": "Hero",
                    "servicetype": "bbvod",
                    "country": "Default",
                    "aspectRatio": "2by3",
                    "href": "https://fng-resizer-qp.foxplay.com/resizer/resizer?service=fng&surl=http://fng-vod-qp.foxplay.com/dl/vol1/s/FNG_CP/p380906ph0154817/2019-05-07-07-30-00/T380906_QP_2x3.png&h=9398679DC9CEDB636B2A8AE9CFA2C5FE22FCF59220563070770DC648CC23D657"
                },
                {
                    "key": "branded-Hero",
                    "servicetype": "bbvod",
                    "country": "Default",
                    "aspectRatio": "1by1",
                    "href": "https://fng-resizer-qp.foxplay.com/resizer/resizer?service=fng&surl=http://fng-vod-qp.foxplay.com/dl/vol1/s/FNG_CP/p380906ph0154817/2019-05-07-07-30-00/branded_T380906_QP_1x1.png&h=12118E4AE8433293C3EFF9218CEF6BBEED594373B9EE230D2669639BB1DFB584"
                },
                {
                    "key": "branded-Hero",
                    "servicetype": "bbvod",
                    "country": "Default",
                    "aspectRatio": "16by9",
                    "href": "https://fng-resizer-qp.foxplay.com/resizer/resizer?service=fng&surl=http://fng-vod-qp.foxplay.com/dl/vol1/s/FNG_CP/p380906ph0154817/2019-05-07-07-30-00/branded_T380906_QP_16x9.png&h=76CEC051498934088F1D7F562F337331C1D467B2D776E24FFC319851BE7A74F0"
                },
                {
                    "key": "Logo",
                    "servicetype": "bbvod",
                    "country": "Default",
                    "aspectRatio": "2p35by1",
                    "href": "https://fng-resizer-qp.foxplay.com/resizer/resizer?service=fng&surl=http://fng-vod-qp.foxplay.com/dl/vol1/s/FNG_CP/p380906ph0154817/2019-05-07-07-30-00/logo_T380906_QP_Logo_235x100_EN.png&h=2AC04ECE8CAA349807B7DA0A8E0E076AB4A61DEFB8118E4C5BB6BF0EA63AB151"
                },
                {
                    "key": "Poster",
                    "servicetype": "bbvod",
                    "country": "Default",
                    "aspectRatio": "2by3",
                    "href": "https://fng-resizer-qp.foxplay.com/resizer/resizer?service=fng&surl=http://fng-vod-qp.foxplay.com/dl/vol1/s/FNG_CP/p380906ph0154817/2019-05-07-07-30-00/T380906_QP_POSTER_EN.png&h=3185FD48811A527A893BAEE2ABAAA0A40380C66AAA394C7A2570A7B8979646E4"
                },
                {
                    "key": "branded-Poster",
                    "servicetype": "bbvod",
                    "country": "Default",
                    "aspectRatio": "2by3",
                    "href": "https://fng-resizer-qp.foxplay.com/resizer/resizer?service=fng&surl=http://fng-vod-qp.foxplay.com/dl/vol1/s/FNG_CP/p380906ph0154817/2019-05-07-07-30-00/branded_T380906_QP_POSTER_EN.png&h=187CA977C154E61CF45EB87DCB772F10697CD1EE04CB5D84030FDDF8FCBDF19F"
                },
                {
                    "key": "branded-Hero",
                    "servicetype": "bbvod",
                    "country": "Default",
                    "aspectRatio": "2by3",
                    "href": "https://fng-resizer-qp.foxplay.com/resizer/resizer?service=fng&surl=http://fng-vod-qp.foxplay.com/dl/vol1/s/FNG_CP/p380906ph0154817/2019-05-07-07-30-00/branded_T380906_QP_2x3.png&h=D31A88AF62255587116BEE6F0DCB5594A6730BEE556F923F47E4156B7CD1F339"
                }
            ],
            "thumbnailImage": [
                {
                    "Default": false,
                    "href": "https://fng-resizer-qp.foxplay.com/resizer/resizer?service=fng&surl=http://fng-vod-qp.foxplay.com/dl/vol1/s/FNG_CP/p380906ph0154817/2018-12-28-12-38-10/P380906_PH0154817_SEP380906_H0154817_P0111472.mxf_out01.JPEG&h=CAADDEBB7D5AC88CB0AA7963A8F5D91581AA0220F04A6E91D1F5877E70424D49"
                },
                {
                    "Default": false,
                    "href": "https://fng-resizer-qp.foxplay.com/resizer/resizer?service=fng&surl=http://fng-vod-qp.foxplay.com/dl/vol1/s/FNG_CP/p380906ph0154817/2018-12-28-12-38-10/P380906_PH0154817_SEP380906_H0154817_P0111472.mxf_out02.JPEG&h=2BC170999F4923F49BB38F8544E4C45624E0390A1DF016BDD67E78D61EE4874F"
                },
                {
                    "Default": true,
                    "href": "https://fng-resizer-qp.foxplay.com/resizer/resizer?service=fng&surl=http://fng-vod-qp.foxplay.com/dl/vol1/s/FNG_CP/p380906ph0154817/2018-12-28-12-38-10/P380906_PH0154817_SEP380906_H0154817_P0111472.mxf_out03.JPEG&h=217FAB37345D9974E0DFCA66723BAE204DCFF120C3A38CEB15B1E01BDA5A4D91"
                },
                {
                    "Default": false,
                    "href": "https://fng-resizer-qp.foxplay.com/resizer/resizer?service=fng&surl=http://fng-vod-qp.foxplay.com/dl/vol1/s/FNG_CP/p380906ph0154817/2018-12-28-12-38-10/P380906_PH0154817_SEP380906_H0154817_P0111472.mxf_out04.JPEG&h=4614D911DCD50C852502B410407BAC54D85E5E9E07C245FF61EEA2B4EA0CD51"
                },
                {
                    "Default": false,
                    "href": "https://fng-resizer-qp.foxplay.com/resizer/resizer?service=fng&surl=http://fng-vod-qp.foxplay.com/dl/vol1/s/FNG_CP/p380906ph0154817/2018-12-28-12-38-10/P380906_PH0154817_SEP380906_H0154817_P0111472.mxf_out05.JPEG&h=5F56C32CCD5FDE55317A47B3B00AAD653FCDFA13A5D189E0B21128F20EB95CCC"
                },
                {
                    "Default": false,
                    "href": "https://fng-resizer-qp.foxplay.com/resizer/resizer?service=fng&surl=http://fng-vod-qp.foxplay.com/dl/vol1/s/FNG_CP/p380906ph0154817/2018-12-28-12-38-10/P380906_PH0154817_SEP380906_H0154817_P0111472.mxf_out06.JPEG&h=C0A2A3A80B3E76458028583955071F39493820F2CCE463E42D00FA5DC170C775"
                },
                {
                    "Default": false,
                    "href": "https://fng-resizer-qp.foxplay.com/resizer/resizer?service=fng&surl=http://fng-vod-qp.foxplay.com/dl/vol1/s/FNG_CP/p380906ph0154817/2018-12-28-12-38-10/P380906_PH0154817_SEP380906_H0154817_P0111472.mxf_out07.JPEG&h=D24CDC919618DEE6D74EAAB8292C0D4E451A109AF27F5B7CC79952065CA54409"
                },
                {
                    "Default": false,
                    "href": "https://fng-resizer-qp.foxplay.com/resizer/resizer?service=fng&surl=http://fng-vod-qp.foxplay.com/dl/vol1/s/FNG_CP/p380906ph0154817/2018-12-28-12-38-10/P380906_PH0154817_SEP380906_H0154817_P0111472.mxf_out08.JPEG&h=C2DC380F100594F0A82591A7DF7F708A65DEE3924F9B3DCB9F7136E5BB649B08"
                },
                {
                    "Default": false,
                    "href": "https://fng-resizer-qp.foxplay.com/resizer/resizer?service=fng&surl=http://fng-vod-qp.foxplay.com/dl/vol1/s/FNG_CP/p380906ph0154817/2018-12-28-12-38-10/P380906_PH0154817_SEP380906_H0154817_P0111472.mxf_out09.JPEG&h=A5147828DF53F3C7D4A444C49CA14CC875AF48FAAA827CDB1AE40AF6C9181277"
                },
                {
                    "Default": false,
                    "href": "https://fng-resizer-qp.foxplay.com/resizer/resizer?service=fng&surl=http://fng-vod-qp.foxplay.com/dl/vol1/s/FNG_CP/p380906ph0154817/2018-12-28-12-38-10/P380906_PH0154817_SEP380906_H0154817_P0111472.mxf_out10.JPEG&h=CC6E741D2BC965C0ED53A0A495625FD1EEB53A8051A93DC335467BF51F430849"
                }
            ],
            "defaultRating": [
                {
                    "defaultRatingCode": "10+",
                    "defaultRatingValue": "2",
                    "defaultRatingCountry": "Default",
                    "defaultRatingName": "10+"
                }
            ],
            "entitlement": [
                {
                    "Country": "MX",
                    "AuthLevel": "premium",
                    "FlightStartDate": "1545966000000",
                    "FlightEndDate": "1582430400000",
                    "PreRoll": false,
                    "MidRoll": false,
                    "PostRoll": false,
                    "PublishDate": "1545966000000",
                    "subscriptionPackage": "urn:tve:mcp"
                },
                {
                    "Country": "MX",
                    "AuthLevel": "unbundled",
                    "FlightStartDate": "1545966000000",
                    "FlightEndDate": "1582430400000",
                    "PreRoll": false,
                    "MidRoll": false,
                    "PostRoll": false,
                    "PublishDate": "1545966000000",
                    "subscriptionPackage": "urn:tve:fpu"
                }
            ],
            "catalogVisibilityEndDate": 1582430400000,
            "rating": [
                {
                    "ratingCode": "All",
                    "ratingValue": "1",
                    "ratingCountry": "MX",
                    "Country": "MX",
                    "name": "All"
                }
            ],
            "brandingChannel": ["FOX PREMIUM"],
            "publishedSubtitle": [
                {
                    "type": "Caption",
                    "language": "spa",
                    "label": "SPA",
                    "format": "DFXP",
                    "fileName": "SEP380906_H0154817_P0111472_SPA.stl",
                    "fileSize": "189440",
                    "updatedDateTime": 1546055370361
                },
                {
                    "type": "Caption",
                    "language": "spa",
                    "label": "SPA",
                    "format": "VTT",
                    "fileName": "SEP380906_H0154817_P0111472_SPA.stl",
                    "fileSize": "189440",
                    "updatedDateTime": 1546055370586
                }
            ],
            "defaultRatingCodes": ["2"],
            "externalId": "P380906_PH0154817",
            "publicationStatus": "Published",
            "catalogLiveDate": 1545966000000,
            "contentGenre": ["Romance"],
            "ratingDescriptors": ["No hay nada inadecuado"],
            "extendedAttributes": {}
        }
    ],
    "footer": {}
}
